{
  "schemaVersion": 1,
  "id": "infra",
  "version": "${version}",
  "name": "Infra",
  "description": "An open source Minecraft Hacked Client",
  "authors": [
    "cydhra"
  ],
  "contact": {
    "sources": "https://gitlab.com/infraclient/infra-fabric-1-14"
  },
  "license": "GPLv3",
  "environment": "*",
  "entrypoints": {
    "main": [
      "infra.fabric.InfraPseudoMod::init"
    ]
  },
  "mixins": [
    "mixins.infra.json",
    "automixins.infra.json",
    "autoredirects.infra.json",
    "autosurrogates.infra.json"
  ],
  "depends": {
    "fabricloader": ">=0.7.4",
    "fabric": "*",
    "fabric-language-kotlin": "*",
    "minecraft": "1.14.x"
  },
  "suggests": {
    "flamingo": "*"
  }
}
